…
3.  What are the three most common pet names in Seattle? To do this you
    will need to count the frequencies of each pet name and display the
    results in descending order of frequency so that you can easily see
    the top three most popular names.

``` r
seattlepets %>%
  count(animal_name) %>%
  arrange(desc(n))
```

    ## # A tibble: 13,930 x 2
    ##    animal_name     n
    ##    <chr>       <int>
    ##  1 <NA>          483
    ##  2 Lucy          439
    ##  3 Charlie       387
    ##  4 Luna          355
    ##  5 Bella         331
    ##  6 Max           270
    ##  7 Daisy         261
    ##  8 Molly         240
    ##  9 Jack          232
    ## 10 Lily          232
    ## # ... with 13,920 more rows
…
